…
Your lab conducted an experiment in which four different fragments of chromosome 21 were integrated into mice. The four parts are denoted with *141G6*, *152F7*, *230E8* and *285E6*. The mice were bred resulting in dozens of transgenic mice. The DNA fragment is not always inherited so some mice have the extra copy and others don't. We are interested in determining if any of these fragments result in an increase in weight, a characteristic associated with trisomic mice.

The data can be loaded like this.

``` r
load("../rdas/mouse.rda")
```

Which loads the `dat` object into your environment:

``` r
dat
```

    ## # A tibble: 537 x 8
    ##      DNA line         tg   sex   age weight    bp  cage
    ##    <dbl> <chr>     <dbl> <dbl> <dbl>  <dbl> <dbl> <dbl>
    ##  1     3 #50-69-1      1     1   113   31.6  123.     1
    ##  2     3 #50-69-2      1     1   113   31.2  125.     1
    ##  3     3 #50-69-3      1     1   113   28.6  122      1
    ##  4     3 #50-69-4      0     1   113   30.1  126      1
    ##  5     3 #50-69-11     0     1   121   31.3  129.     2
    ##  6     3 #50-69-12     0     1   121   36.4  126.     2
    ##  7     3 #50-69-13     1     1   121   36.5  126.     2
    ##  8     3 #50-69-15     1     1   121   29.8  124.     2
    ##  9     3 #50-69-16     1     1   121   35.6  127      2
    ## 10     3 #50-69-17     1     1   121   33.5  123.     2
    ## # ... with 527 more rows
…
