…
We need to separate the year from the variable name. We can do this with the `separate` function like this:

``` r
dat %>% separate(key, c("year", "variable"), sep = "_")
```

Because `_` is the default separator we can can write

``` r
dat %>% separate(key, c("year", "variable"))
```

    ## # A tibble: 224 x 4
    ##    country     year  variable  value
    ##    <chr>       <chr> <chr>     <dbl>
    ##  1 Germany     1960  fertility  2.41
    ##  2 South Korea 1960  fertility  6.16
    ##  3 Germany     1960  life      69.3 
    ##  4 South Korea 1960  life      53.0 
    ##  5 Germany     1961  fertility  2.44
    ##  6 South Korea 1961  fertility  5.99
    ##  7 Germany     1961  life      69.8 
    ##  8 South Korea 1961  life      53.8 
    ##  9 Germany     1962  fertility  2.47
    ## 10 South Korea 1962  fertility  5.79
    ## # ... with 214 more rows

However, there is a problem with this call because `life_expectancy` is divided into two. We can get around this by using the `extra` argument:

``` r
dat %>% separate(key, c("year", "variable"), extra = "merge")
```

    ## # A tibble: 224 x 4
    ##    country     year  variable        value
    ##    <chr>       <chr> <chr>           <dbl>
    ##  1 Germany     1960  fertility        2.41
    ##  2 South Korea 1960  fertility        6.16
    ##  3 Germany     1960  life_expectancy 69.3 
    ##  4 South Korea 1960  life_expectancy 53.0 
    ##  5 Germany     1961  fertility        2.44
    ##  6 South Korea 1961  fertility        5.99
    ##  7 Germany     1961  life_expectancy 69.8 
    ##  8 South Korea 1961  life_expectancy 53.8 
    ##  9 Germany     1962  fertility        2.47
    ## 10 South Korea 1962  fertility        5.79
    ## # ... with 214 more rows

However, we are not done because we want to have life expectancy and fertility in two different columns. Use the `spread` function to achieve this.

``` r
dat %>% 
  separate(key, c("year", "variable"), extra = "merge") %>%
  spread(variable, value) 
```

    ## # A tibble: 112 x 4
    ##    country year  fertility life_expectancy
    ##    <chr>   <chr>     <dbl>           <dbl>
    ##  1 Germany 1960       2.41            69.3
    ##  2 Germany 1961       2.44            69.8
    ##  3 Germany 1962       2.47            70.0
    ##  4 Germany 1963       2.49            70.1
    ##  5 Germany 1964       2.49            70.7
    ##  6 Germany 1965       2.48            70.6
    ##  7 Germany 1966       2.44            70.8
    ##  8 Germany 1967       2.37            71.0
    ##  9 Germany 1968       2.28            70.6
    ## 10 Germany 1969       2.17            70.5
    ## # ... with 102 more rows

There is one remaining problem. The year variable is a character and should be numeric. Change the year variable to a numeric and then order the table by year. Call the final table `dat`.

``` r
dat %>% 
  separate(key, c("year", "variable"), extra = "merge") %>%
  spread(variable, value) %>%
  mutate(year = as.numeric(year)) %>%
  arrange(year)
```

    ## # A tibble: 112 x 4
    ##    country      year fertility life_expectancy
    ##    <chr>       <dbl>     <dbl>           <dbl>
    ##  1 Germany      1960      2.41            69.3
    ##  2 South Korea  1960      6.16            53.0
    ##  3 Germany      1961      2.44            69.8
    ##  4 South Korea  1961      5.99            53.8
    ##  5 Germany      1962      2.47            70.0
    ##  6 South Korea  1962      5.79            54.5
    ##  7 Germany      1963      2.49            70.1
    ##  8 South Korea  1963      5.57            55.3
    ##  9 Germany      1964      2.49            70.7
    ## 10 South Korea  1964      5.36            56.0
    ## # ... with 102 more rows
…
``` r
DNA <- names(raw_weight) %>% str_remove("\\.\\D+") %>% unique()
```

The `\\.\\D+` is a regex pattern representing a period followed by anything that is not number.

Now let's extract the part of the table that contains the first of these tables, defined by `152F7`. You can use the `contains` helper function in call to `select` like this:

``` r
s <- DNA[2]
raw_weight %>% select(contains(s))
```

    ## # A tibble: 177 x 6
    ##    `152F7.line` `152F7.tg` `152F7.sex` `152F7.age` `152F7.weight`
    ##    <chr>             <dbl>       <dbl>       <dbl>          <dbl>
    ##  1 #12-14-1              1           1         170           31.1
    ##  2 #12-14-2              1           1         170           33.4
    ##  3 #12-14-3              1           1         170           31.4
    ##  4 #12-14-4              0           1         170           33.2
    ##  5 #12-14-5              1           1         170           30.3
    ##  6 #12-14-6              1           1         170           32.4
    ##  7 #12-14-17             0           1         182           41.3
    ##  8 #12-14-18             0           1         182           33  
    ##  9 #12-14-19             0           1         182           31  
    ## 10 #12-14-20             0           1         182           29.1
    ## # ... with 167 more rows, and 1 more variable: `152F7.cage` <dbl>
…
