Data Science for Statisticians: Data wrangling
…
## [1] "1960_fertility"       "1960_fertility"       "1960_life_expectancy"
## [4] "1960_life_expectancy" "1961_fertility"

Example

dat %>% separate(key, c("year", "variable"), "_")

Example

dat %>% separate(key, c("year", "variable"))

## Warning: Expected 2 pieces. Additional pieces discarded in 112 rows [3, 4,
## 7, 8, 11, 12, 15, 16, 19, 20, 23, 24, 27, 28, 31, 32, 35, 36, 39, 40, ...].

## # A tibble: 224 x 4
##    country     year  variable  value
##    <chr>       <chr> <chr>     <dbl>
##  1 Germany     1960  fertility  2.41
##  2 South Korea 1960  fertility  6.16
##  3 Germany     1960  life      69.3 
##  4 South Korea 1960  life      53.0 
##  5 Germany     1961  fertility  2.44
##  6 South Korea 1961  fertility  5.99
##  7 Germany     1961  life      69.8 
##  8 South Korea 1961  life      53.8 
##  9 Germany     1962  fertility  2.47
## 10 South Korea 1962  fertility  5.79
## # ... with 214 more rows

Example

dat %>% separate(key, c("year", "first_variable",
                        "second_variable"), 
                 fill = "right")

## # A tibble: 224 x 5
##    country     year  first_variable second_variable value
##    <chr>       <chr> <chr>          <chr>           <dbl>
##  1 Germany     1960  fertility      <NA>             2.41
##  2 South Korea 1960  fertility      <NA>             6.16
##  3 Germany     1960  life           expectancy      69.3 
##  4 South Korea 1960  life           expectancy      53.0 
##  5 Germany     1961  fertility      <NA>             2.44
##  6 South Korea 1961  fertility      <NA>             5.99
##  7 Germany     1961  life           expectancy      69.8 
##  8 South Korea 1961  life           expectancy      53.8 
##  9 Germany     1962  fertility      <NA>             2.47
## 10 South Korea 1962  fertility      <NA>             5.79
## # ... with 214 more rows

Example

dat %>% separate(key, c("year", "variable"), extra = "merge")

## # A tibble: 224 x 4
##    country     year  variable        value
##    <chr>       <chr> <chr>           <dbl>
##  1 Germany     1960  fertility        2.41
##  2 South Korea 1960  fertility        6.16
##  3 Germany     1960  life_expectancy 69.3 
##  4 South Korea 1960  life_expectancy 53.0 
##  5 Germany     1961  fertility        2.44
##  6 South Korea 1961  fertility        5.99
##  7 Germany     1961  life_expectancy 69.8 
##  8 South Korea 1961  life_expectancy 53.8 
##  9 Germany     1962  fertility        2.47
## 10 South Korea 1962  fertility        5.79
## # ... with 214 more rows

Example

dat %>% 
  separate(key, c("year", "variable"), extra = "merge") %>%
  spread(variable, value) 

## # A tibble: 112 x 4
##    country year  fertility life_expectancy
##    <chr>   <chr>     <dbl>           <dbl>
##  1 Germany 1960       2.41            69.3
##  2 Germany 1961       2.44            69.8
##  3 Germany 1962       2.47            70.0
##  4 Germany 1963       2.49            70.1
##  5 Germany 1964       2.49            70.7
##  6 Germany 1965       2.48            70.6
##  7 Germany 1966       2.44            70.8
##  8 Germany 1967       2.37            71.0
##  9 Germany 1968       2.28            70.6
## 10 Germany 1969       2.17            70.5
## # ... with 102 more rows

unite

dat %>% 
  separate(key, 
           c("year", "first_variable", "second_variable"), 
           fill = "right")

## # A tibble: 224 x 5
##    country     year  first_variable second_variable value
##    <chr>       <chr> <chr>          <chr>           <dbl>
##  1 Germany     1960  fertility      <NA>             2.41
##  2 South Korea 1960  fertility      <NA>             6.16
##  3 Germany     1960  life           expectancy      69.3 
##  4 South Korea 1960  life           expectancy      53.0 
##  5 Germany     1961  fertility      <NA>             2.44
##  6 South Korea 1961  fertility      <NA>             5.99
##  7 Germany     1961  life           expectancy      69.8 
##  8 South Korea 1961  life           expectancy      53.8 
##  9 Germany     1962  fertility      <NA>             2.47
## 10 South Korea 1962  fertility      <NA>             5.79
## # ... with 214 more rows

unite

dat %>% 
  separate(key, 
           c("year", "first_variable", "second_variable"), 
           fill = "right") %>%
  unite(variable, first_variable, second_variable, sep="_") %>%
  spread(variable, value) %>%
  rename(fertlity = fertility_NA)

## # A tibble: 112 x 4
##    country year  fertlity life_expectancy
##    <chr>   <chr>    <dbl>           <dbl>
##  1 Germany 1960      2.41            69.3
##  2 Germany 1961      2.44            69.8
##  3 Germany 1962      2.47            70.0
##  4 Germany 1963      2.49            70.1
##  5 Germany 1964      2.49            70.7
##  6 Germany 1965      2.48            70.6
##  7 Germany 1966      2.44            70.8
##  8 Germany 1967      2.37            71.0
##  9 Germany 1968      2.28            70.6
## 10 Germany 1969      2.17            70.5
## # ... with 102 more rows
…
